simulation/qsim/elevador.msim.vcd
$comment
	File created using the following command:
		vcd file elevador.msim.vcd -direction
$end
$date
	Sun Dec 08 16:50:55 2024
$end
$version
	ModelSim Version 10.5b
$end
$timescale
	1ps
$end

$scope module Prioridade_vlg_vec_tst $end
$var reg 1 ! A0 $end
$var reg 1 " A1 $end
$var reg 1 # A2 $end
$var reg 1 $ BA0 $end
$var reg 1 % BA1 $end
$var reg 1 & C $end
$var reg 1 ' clk $end
$var reg 1 ( reset $end
$var wire 1 ) P $end
$var wire 1 * saida [1] $end
$var wire 1 + saida [0] $end

$scope module i1 $end
$var wire 1 , gnd $end
$var wire 1 - vcc $end
$var wire 1 . unknown $end
$var tri1 1 / devclrn $end
$var tri1 1 0 devpor $end
$var tri1 1 1 devoe $end
$var wire 1 2 clk~combout $end
$var wire 1 3 BA0~combout $end
$var wire 1 4 A0~combout $end
$var wire 1 5 A1~combout $end
$var wire 1 6 BA1~combout $end
$var wire 1 7 always1~0_combout $end
$var wire 1 8 A2~combout $end
$var wire 1 9 nextstate~0_combout $end
$var wire 1 : Selector1~0_combout $end
$var wire 1 ; Selector2~0_combout $end
$var wire 1 < reset~combout $end
$var wire 1 = state.S2~regout $end
$var wire 1 > Selector1~1_combout $end
$var wire 1 ? state.S1~regout $end
$upscope $end
$upscope $end
$enddefinitions $end
#0
$dumpvars
1!
0"
0#
1$
1%
0&
1'
0(
0)
x+
x*
0,
1-
x.
1/
10
11
x2
x3
x4
x5
x6
x7
x8
x9
x:
x;
x<
0=
x>
0?
$end
#1132
13
14
05
16
08
#1163
0<
12
#1484
0;
#4946
0*
#4969
0+
#5515
17
#5594
09
#5715
0:
#7188
0>
#10000
0!
1#
0$
0%
#11132
06
03
18
04
#15515
07
#20000
1"
0'
1!
#21132
14
15
#21163
02
#40000
1$
0"
1'
0!
#41132
04
05
13
#41163
12
#50000
0#
0$
#51132
03
08
#60000
0'
1!
1#
#61132
18
14
#61163
02
#70000
1%
1"
0#
#71132
08
15
16
#80000
1$
1'
0!
0%
#81132
06
04
13
#81163
12
#86151
1:
#87624
1>
#90000
0"
1#
0$
1%
#91132
16
03
18
05
#95515
17
#95715
0:
#96089
0>
#100000
0'
1!
0%
#101132
06
14
#101163
02
#105515
07
#110000
0#
1$
0!
1%
#111132
16
04
13
08
#115515
17
#120000
1"
1'
1#
#121132
18
15
#121163
12
#125594
19
#125716
07
#127028
09
#130000
0$
0%
#131132
06
03
#140000
1!
0"
0'
#141132
05
14
#141163
02
#150000
0#
1%
1"
#151132
15
16
08
#160000
1$
0!
1'
1#
0%
#161132
06
18
04
13
#161163
12
#170000
0$
0#
1%
#171132
16
08
03
#176308
1:
#180000
1!
0'
#181132
14
#181163
02
#186151
0:
#190000
0"
1#
0%
0!
#191132
04
06
18
05
#200000
1'
1%
1!
#201132
14
16
#201163
12
#205515
17
#210000
1$
0%
0!
#211132
04
06
13
#215515
07
#216152
19
#216827
09
#220000
0'
0$
#221132
03
#221163
02
#230000
1$
#231132
13
#240000
1!
1'
#241132
14
#241163
12
#250000
1"
0#
1%
0!
#251132
04
16
08
15
#256151
1:
#257624
1>
#260000
0$
0'
0"
0%
1!
#261132
14
06
05
03
#261163
02
#265715
0:
#266089
0>
#270000
1$
1"
#271132
15
13
#280000
1#
1'
1%
0$
0"
#281132
05
03
16
18
#281163
12
#285515
17
#290000
0!
0%
1$
#291132
13
06
04
#295515
07
#296152
19
#296827
09
#300000
0'
1"
1!
0$
#301132
03
14
15
#301163
02
#310000
0#
1%
0"
0!
1$
#311132
13
04
05
16
08
#315515
17
#320000
1'
1#
#321132
18
#321163
12
#325594
19
#330000
0%
1"
1!
0$
#331132
03
14
15
06
#335716
07
#336096
09
#340000
0'
0"
0!
1$
#341132
13
04
05
#341163
02
#350000
0#
1%
0$
#351132
03
16
08
#355515
17
#360000
1'
1#
#361132
18
#361163
12
#370000
1!
0%
1$
0#
#371132
08
13
06
14
#375515
07
#380000
1"
0'
0$
1#
#381132
18
03
15
#381163
02
#390000
1%
0"
1$
#391132
13
05
16
#395515
17
#400000
1'
0#
0%
#401132
06
08
#401163
12
#405515
07
#410000
0!
0$
1%
#411132
16
03
04
#415515
17
#420000
1"
0'
1#
0%
#421132
06
18
15
#421163
02
#425716
07
#430000
0"
1%
#431132
16
05
#435515
17
#440000
1!
1'
0#
1"
0%
#441132
06
15
08
14
#441163
12
#445716
07
#446152
19
#447028
09
#450000
1$
0!
0"
#451132
05
04
13
#460000
0'
0$
1!
1"
#461132
15
14
03
#461163
02
#470000
1#
1%
0!
#471132
04
16
18
#480000
1'
0#
1!
#481132
14
08
#481163
12
#490000
0%
0!
#491132
04
06
#496151
1:
#500000
0"
0'
1#
1!
#501132
14
18
05
#501163
02
#505715
0:
#510000
1$
1%
0#
#511132
08
16
13
#515515
17
#520000
1"
1'
0!
0$
1#
#521132
18
03
04
15
#521163
12
#525716
07
#530000
0%
1!
1$
#531132
13
14
06
#540000
0'
1%
0!
0$
#541132
03
04
16
#541163
02
#550000
0#
#551132
08
#556308
1:
#560000
1'
0%
1!
1$
#561132
13
14
06
#561163
12
#566089
1>
#566151
0:
#567624
0>
#570000
0"
1%
0!
0$
#571132
03
04
16
05
#575515
17
#580000
1#
0'
1$
#581132
13
18
#581163
02
#585594
19
#590000
1"
0%
1!
0#
#591132
08
14
06
15
#595594
09
#595716
07
#600000
1'
0"
#601132
05
#601163
12
#610000
0$
1"
#611132
15
03
#620000
0'
1$
#621132
13
#621163
02
#630000
0!
0"
#631132
05
04
#640000
1'
1!
#641132
14
#641163
12
#660000
1"
0'
#661132
15
#661163
02
#670000
1#
0$
0!
#671132
04
03
18
#680000
1%
0"
1'
0#
1$
1!
#681132
14
13
08
05
16
#681163
12
#685515
17
#690000
0%
0!
#691132
04
06
#695515
07
#700000
1"
0'
0$
1%
1!
#701132
14
16
03
15
#701163
02
#720000
1'
1$
0!
#721132
04
13
#721163
12
#726151
1:
#727624
1>
#730000
1#
0"
0%
0$
#731132
03
06
05
18
#735715
0:
#736089
0>
#740000
0'
1"
1$
#741132
13
15
#741163
02
#750000
1%
0"
#751132
05
16
#755515
17
#756827
19
#760000
1!
1'
0$
1"
#761132
15
03
14
#761163
12
#765716
07
#766096
09
#770000
0!
0"
#771132
05
04
#775716
17
#780000
0#
0'
1!
#781132
14
08
#781163
02
#786152
19
#790000
0%
1$
1"
1#
#791132
18
15
13
06
#795716
07
#796096
09
#800000
1'
0!
0"
#801132
05
04
#801163
12
#810000
1!
1"
#811132
15
14
#820000
1%
0#
0'
0!
0"
#821132
05
04
08
16
#821163
02
#825515
17
#830000
1"
#831132
15
#835715
1:
#835716
07
#837188
1>
#840000
0%
1'
1!
0"
#841132
05
14
06
#841163
12
#845715
0:
#847188
0>
#850000
1%
0!
1"
#851132
15
04
16
#856151
1:
#857624
1>
#860000
1#
0'
0%
#861132
06
18
#861163
02
#866308
0:
#867781
0>
#870000
0#
1%
#871132
16
08
#876308
1:
#877781
1>
#880000
1!
1'
1#
0%
#881132
06
18
14
#881163
12
#886308
0:
#887781
0>
#900000
0'
0#
1%
#901132
16
08
#901163
02
#910000
0$
1#
0%
#911132
06
18
03
#920000
0"
1'
0#
1%
#921132
16
08
05
#921163
12
#925515
17
#926827
19
#930000
1"
#931132
15
#935716
07
#937028
09
#940000
1$
0'
#941132
13
#941163
02
#950000
1#
0"
0$
#951132
03
05
18
#955716
17
#960000
0!
0%
1'
1$
#961132
13
06
04
#961163
12
#965515
07
#966152
19
#966827
09
#970000
1%
0$
#971132
03
16
#975515
17
#980000
0#
1"
1!
0'
0%
#981132
06
14
15
08
#981163
02
#985716
07
#986152
19
#987028
09
#990000
1$
0"
0!
#991132
04
05
13
